<?xml version="1.0" encoding="utf-8"?>
<!-- Generator: Adobe Illustrator 24.2.3, SVG Export Plug-In . SVG Version: 6.00 Build 0)  -->
<svg version="1.1" id="Livello_1" xmlns="http://www.w3.org/2000/svg" xmlns:xlink="http://www.w3.org/1999/xlink" x="0px" y="0px"
	 viewBox="0 0 595.3 595.3" enable-background="new 0 0 595.3 595.3" xml:space="preserve">
<g>
	<path fill="#5A4394" d="M403.8,176.2c-3.2-1.8-6.7-2.6-10.5-2.2c-3.8,0.4-7.1,1.9-10,4.5l-16.1,14.4c-4.5,4.2-6.4,9.3-5.6,15.2
		c0.7,5.9,3.8,10.4,9.2,13.4c3.2,1.8,6.7,2.6,10.5,2.2c3.8-0.4,7.1-1.9,10-4.5l16.1-14.4c4.5-4.2,6.4-9.3,5.6-15.2
		S409.2,179.2,403.8,176.2z"/>
	<path fill="#5A4394" d="M413.6,262.7h-13.1c-3.7,0-6.8,1.5-9.4,4.4c-2.5,3-3.8,6.6-3.8,11s1.3,8.1,3.8,11c2.5,3,5.6,4.4,9.4,4.4
		h13.1c3.7,0,6.8-1.5,9.4-4.4c2.5-3,3.8-6.6,3.8-11s-1.3-8.1-3.8-11S417.3,262.7,413.6,262.7z"/>
	<g>
		<path fill="#5A4394" d="M438.5,60.1c-0.5,0.5,21.6,23.7,21.6,23.7l-89.8,89.8l-5.9-4c-17.2-11.8-45.1-19.2-69.1-18.5
			c-23.8,0.7-42.1,5.4-61.5,15.9l-12,6.4L190.6,143l23.8-24.4L181,86l-23.8,24.4L136.3,90l25.9-25.2l-123.6-37l38.9,122.3l22.5-22.8
			l20.8,20.3l-23.6,24.2l33.3,32.5l23.6-24.2l31.4,30.7L180,221c-10.3,18.9-15.9,41.6-15.9,64c0,19.6,2.9,32.3,12.1,53.2
			c15,34.1,44,59.6,82.8,73l10.8,3.7v45.4H236v49.9h33.8v59.6h52.1v-59.6H356v-49.9h-34.1v-45.7L336,410c27-8.8,48.1-23.2,63.6-43.4
			c33.1-43,38.5-95.7,14.7-143l-7.1-14.2l88.3-88.3c0,0,23.7,22.8,24.4,22.8s35.9-118.4,35.9-118.4S439.8,58.9,438.5,60.1z
			 M414.4,304.5c-1.6,7.5-3.8,14.8-6.6,21.8c-6.5,0-12.3,1.9-17.3,5.8s-8.6,8.8-10.9,14.9l-4.5,12.4c-1.3,3.5-3.4,6.4-6.4,8.6
			c-3,2.3-6.4,3.4-10.2,3.4c-5,0-9.1-1.6-12.4-4.9s-4.9-7.4-4.9-12.4v-6.4c0-5.8-2.1-10.8-6.2-15c-4.1-4.3-9.1-6.4-14.9-6.4
			c-2.8,0-5.5,0.6-8.1,1.7s-5,2.7-7,4.7l-9,8.6c-8.3,0-15.4,2.9-21.2,8.8c-5.9,5.9-8.8,13-8.8,21.2c0,8.3,2.9,15.4,8.8,21.4
			s13,9,21.2,9c-28.1,0-53-8.6-74.6-25.9c-21.7-17.3-35.8-39-42.3-65.1c7.3-1,13.5-4.3,18.8-9.8s7.9-12.2,7.9-19.9v-15l20.5-26.1
			l4.2,36.3c1.8,2.8,4.1,4.9,7,6.4s6.1,2.3,9.6,2.3c5.5,0,10.2-1.9,13.9-5.6c3.8-3.8,5.6-8.4,5.6-13.9l14.5,0.7h15
			c4.3,0,7.8-1.4,10.7-4.3c2.9-2.9,4.3-6.5,4.3-10.7V221h15c8.3,0,15.4-2.9,21.2-8.8c5.9-5.9,8.8-13,8.8-21.2v-14.3
			c18,10.5,32.7,25,43.8,43.4c11.2,18.4,16.7,38.8,16.7,61.1C416.9,289.2,416.1,297,414.4,304.5z"/>
	</g>
</g>
<path fill="#5A4394" d="M402.6,233.5h-19c-5.4,0-9.9,2.1-13.5,6.4c-3.6,4.3-5.5,9.6-5.5,15.9s1.8,11.6,5.5,15.9
	c3.6,4.3,8.1,6.4,13.5,6.4h19c5.4,0,9.9-2.1,13.5-6.4s5.5-9.6,5.5-15.9c0-6.3-1.8-11.6-5.5-15.9C412.5,235.6,408,233.5,402.6,233.5z
	"/>
<path fill="#5A4394" d="M221.9,339.2h-14.5c-4.1,0-15.5-0.7-18.3,2.6c-2.8,3.3,3.8,9.6,3.8,14.5c0,4.8,1.4,8.9,4.2,12.2
	c2.8,3.3,6.2,4.9,10.3,4.9h14.5c4.1,0,7.5-1.6,10.3-4.9s4.2-7.3,4.2-12.2c0-4.8-1.4-8.9-4.2-12.2C229.4,340.9,226,339.2,221.9,339.2
	z"/>
<path fill="#5A4394" d="M360.8,289.3h-11.4c-3.2,0-5.9,1.3-8.1,3.9s-3.3,5.8-3.3,9.6c0,3.8,1.1,7,3.3,9.6c2.2,2.6,4.9,3.9,8.1,3.9
	h11.4c3.2,0,5.9-1.3,8.1-3.9s3.3-5.8,3.3-9.6c0-3.8-1.1-7-3.3-9.6C366.7,290.6,364,289.3,360.8,289.3z"/>
</svg>
